1	2	3	1	1	0.2
2	2	1	1	1	0.3
3	2	2	2	2	0.05
4	2	4	2	2	0.2
5	2	1	1	1	0.45
6	2	1	1	1	0.2
7	2	2	2	2	0.45
8	2	3	1	1	0.05
9	2	4	2	2	0.3
10	2	1	1	1	0.1
11	2	2	2	2	0.2
12	2	1	1	1	0.45
13	2	3	1	1	0.3
14	2	4	2	2	0.05
15	2	2	2	2	0.45
16	2	1	1	1	0.2
17	2	4	2	2	0.3
18	2	3	1	1	0.1
19	2	4	2	2	0.2
20	2	1	1	1	0.05
21	2	4	2	2	0.3
22	2	2	2	2	0.1
23	2	1	1	1	0.05
24	2	1	1	1	0.2
25	2	4	2	2	0.05
26	2	2	2	2	0.45
27	2	1	1	1	0.45
28	2	4	2	2	0.05
29	2	4	2	2	0.1
30	2	3	1	1	0.3
31	2	3	1	1	0.05
32	2	2	2	2	0.45
33	2	3	1	1	0.45
34	2	2	2	2	0.05
35	2	2	2	2	0.2
36	2	3	1	1	0.05
37	2	3	1	1	0.45
38	2	4	2	2	0.3
39	2	3	1	1	0.2
40	2	3	1	1	0.05
41	2	4	2	2	0.3
42	2	2	2	2	0.05
43	2	1	1	1	0.3
44	2	2	2	2	0.05
45	2	4	2	2	0.45
46	2	1	1	1	0.05
47	2	1	1	1	0.2
48	2	4	2	2	0.2
49	2	1	1	1	0.3
50	2	1	1	1	0.05
51	2	2	2	2	0.45
52	2	4	2	2	0.2
53	2	3	1	1	0.05
54	2	4	2	2	0.1
55	2	2	2	2	0.05
56	2	3	1	1	0.45
57	2	2	2	2	0.2
58	2	2	2	2	0.45
59	2	1	1	1	0.05
60	2	2	2	2	0.45
61	2	1	1	1	0.1
62	2	3	1	1	0.05
63	2	4	2	2	0.1
64	2	3	1	1	0.3
65	2	3	1	1	0.3
66	2	2	2	2	0.1
67	2	2	2	2	0.05
68	2	1	1	1	0.1
69	2	1	1	1	0.05
70	2	2	2	2	0.45
71	2	4	2	2	0.3
72	2	1	1	1	0.05
73	2	4	2	2	0.3
74	2	4	2	2	0.2
75	2	3	1	1	0.3
76	2	3	1	1	0.2
77	2	2	2	2	0.05
78	2	4	2	2	0.3
79	2	3	1	1	0.05
80	2	4	2	2	0.3
81	2	3	1	1	0.45
82	2	1	1	1	0.45
83	2	2	2	2	0.05
84	2	3	1	1	0.3
85	2	3	1	1	0.45
86	2	4	2	2	0.45
87	2	2	2	2	0.05
88	2	1	1	1	0.45
89	2	1	1	1	0.05
90	2	4	2	2	0.2
91	2	4	2	2	0.3
92	2	3	1	1	0.1
93	2	1	1	1	0.2
94	2	4	2	2	0.05
95	2	3	1	1	0.3
96	2	3	1	1	0.2
97	2	2	2	2	0.2
98	2	2	2	2	0.05
99	2	1	1	1	0.2
100	2	2	2	2	0.05
101	2	3	1	1	0.45
102	2	4	2	2	0.3
103	2	3	1	1	0.2
104	2	1	1	1	0.45
105	2	4	2	2	0.2
106	2	2	2	2	0.05
107	2	1	1	1	0.45
108	2	2	2	2	0.1
109	2	4	2	2	0.1
110	2	3	1	1	0.3
111	2	1	1	1	0.3
112	2	4	2	2	0.05
113	2	2	2	2	0.2
114	2	1	1	1	0.05
115	2	1	1	1	0.2
116	2	4	2	2	0.3
117	2	1	1	1	0.3
118	2	4	2	2	0.05
119	2	2	2	2	0.45
120	2	3	1	1	0.05
121	2	2	2	2	0.2
122	2	1	1	1	0.45
123	2	3	1	1	0.3
124	2	2	2	2	0.3
125	2	4	2	2	0.05
126	2	3	1	1	0.45
127	2	1	1	1	0.3
128	2	4	2	2	0.45
129	2	1	1	1	0.05
130	2	3	1	1	0.2
131	2	2	2	2	0.3
132	2	2	2	2	0.2
133	2	3	1	1	0.1
134	2	3	1	1	0.2
135	2	4	2	2	0.05
136	2	1	1	1	0.3
137	2	3	1	1	0.05
138	2	4	2	2	0.2
139	2	1	1	1	0.05
140	2	2	2	2	0.2
141	2	4	2	2	0.2
142	2	3	1	1	0.3
143	2	1	1	1	0.05
144	2	2	2	2	0.45
145	2	2	2	2	0.05
146	2	1	1	1	0.1
147	2	3	1	1	0.05
148	2	2	2	2	0.3
149	2	4	2	2	0.05
150	2	3	1	1	0.3
151	2	3	1	1	0.05
152	2	4	2	2	0.45
153	2	2	2	2	0.2
154	2	1	1	1	0.1
155	2	1	1	1	0.45
156	2	4	2	2	0.05
157	2	2	2	2	0.1
158	2	3	1	1	0.2
159	2	4	2	2	0.2
160	2	2	2	2	0.05
161	2	3	1	1	0.45
162	2	2	2	2	0.05
163	2	1	1	1	0.1
164	2	1	1	1	0.05
165	2	4	2	2	0.3
166	2	1	1	1	0.2
167	2	4	2	2	0.05
168	2	2	2	2	0.45
169	2	3	1	1	0.45
170	2	1	1	1	0.05
171	2	2	2	2	0.45
172	2	3	1	1	0.2
173	2	3	1	1	0.05
174	2	4	2	2	0.45
175	2	2	2	2	0.45
176	2	3	1	1	0.05
177	2	4	2	2	0.3
178	2	2	2	2	0.1
179	2	3	1	1	0.2
180	2	2	2	2	0.3
181	2	2	2	2	0.05
182	2	1	1	1	0.45
183	2	3	1	1	0.1
184	2	4	2	2	0.3
185	2	4	2	2	0.05
186	2	3	1	1	0.3
187	2	4	2	2	0.45
188	2	2	2	2	0.3
189	2	1	1	1	0.2
190	2	4	2	2	0.2
191	2	2	2	2	0.05
192	2	1	1	1	0.2
193	2	3	1	1	0.05
194	2	4	2	2	0.1
195	2	3	1	1	0.05
196	2	1	1	1	0.45
197	2	2	2	2	0.05
198	2	4	2	2	0.45
199	2	1	1	1	0.05
200	2	1	1	1	0.3
201	2	4	2	2	0.45
202	2	2	2	2	0.2
203	2	1	1	1	0.2
204	2	1	1	1	0.3
205	2	4	2	2	0.45
206	2	2	2	2	0.3
207	2	3	1	1	0.45
208	2	1	1	1	0.05
209	2	4	2	2	0.45
210	2	4	2	2	0.3
211	2	1	1	1	0.05
212	2	2	2	2	0.45
213	2	4	2	2	0.3
214	2	1	1	1	0.05
215	2	3	1	1	0.3
216	2	4	2	2	0.2
217	2	1	1	1	0.2
218	2	2	2	2	0.05
219	2	4	2	2	0.1
220	2	1	1	1	0.2
221	2	1	1	1	0.05
222	2	2	2	2	0.45
223	2	4	2	2	0.05
224	2	1	1	1	0.3
225	2	1	1	1	0.45
226	2	2	2	2	0.45
227	2	4	2	2	0.1
228	2	3	1	1	0.05
229	2	4	2	2	0.2
230	2	1	1	1	0.1
231	2	2	2	2	0.05
232	2	2	2	2	0.2
233	2	1	1	1	0.1
234	2	3	1	1	0.05
235	2	2	2	2	0.3
236	2	2	2	2	0.05
237	2	3	1	1	0.45
238	2	1	1	1	0.1
239	2	2	2	2	0.3
240	2	4	2	2	0.2
241	2	1	1	1	0.3
242	2	3	1	1	0.05
243	2	2	2	2	0.3
244	2	3	1	1	0.2
245	2	3	1	1	0.45
246	2	2	2	2	0.05
247	2	3	1	1	0.2
248	2	1	1	1	0.2
249	2	4	2	2	0.05
250	2	1	1	1	0.1
251	2	3	1	1	0.2
252	2	4	2	2	0.45
253	2	2	2	2	0.1
254	2	3	1	1	0.05
255	2	1	1	1	0.2
256	2	2	2	2	0.3
257	2	4	2	2	0.05
258	2	1	1	1	0.45
259	2	2	2	2	0.05
260	2	4	2	2	0.3
261	2	1	1	1	0.05
262	2	1	1	1	0.45
263	2	4	2	2	0.3
264	2	2	2	2	0.2
265	2	3	1	1	0.05
266	2	3	1	1	0.45
267	2	2	2	2	0.45
268	2	4	2	2	0.05
269	2	3	1	1	0.2
270	2	3	1	1	0.05
271	2	2	2	2	0.2
272	2	2	2	2	0.05
273	2	3	1	1	0.3
274	2	4	2	2	0.05
275	2	3	1	1	0.45
276	2	1	1	1	0.05
277	2	4	2	2	0.2
278	2	4	2	2	0.45
279	2	3	1	1	0.3
280	2	3	1	1	0.3
281	2	4	2	2	0.1
282	2	2	2	2	0.05
283	2	3	1	1	0.3
284	2	1	1	1	0.1
285	2	4	2	2	0.05
286	2	1	1	1	0.3
287	2	4	2	2	0.3
288	2	2	2	2	0.05
289	2	3	1	1	0.45
290	2	3	1	1	0.05
291	2	2	2	2	0.1
292	2	2	2	2	0.05
293	2	1	1	1	0.3
294	2	3	1	1	0.05
295	2	4	2	2	0.45
296	2	2	2	2	0.2
297	2	3	1	1	0.2
298	2	3	1	1	0.45
299	2	4	2	2	0.2
300	2	1	1	1	0.05
301	2	1	1	1	0.45
302	2	2	2	2	0.45
303	2	3	1	1	0.2
304	2	2	2	2	0.05
305	2	3	1	1	0.1
306	2	3	1	1	0.05
307	2	2	2	2	0.1
308	2	4	2	2	0.05
309	2	1	1	1	0.3
310	2	4	2	2	0.05
311	2	2	2	2	0.45
312	2	1	1	1	0.45
313	2	2	2	2	0.3
314	2	4	2	2	0.3
315	2	3	1	1	0.2
316	2	4	2	2	0.05
317	2	4	2	2	0.45
318	2	3	1	1	0.2
319	2	3	1	1	0.2
320	2	2	2	2	0.05
321	2	3	1	1	0.3
322	2	2	2	2	0.2
323	2	1	1	1	0.1
324	2	4	2	2	0.1
325	2	1	1	1	0.2
326	2	2	2	2	0.05
327	2	2	2	2	0.3
328	2	1	1	1	0.3
329	2	2	2	2	0.2
330	2	2	2	2	0.05
331	2	1	1	1	0.45
332	2	3	1	1	0.05
333	2	2	2	2	0.3
334	2	4	2	2	0.2
335	2	1	1	1	0.2
336	2	4	2	2	0.45
337	2	1	1	1	0.05
338	2	1	1	1	0.45
339	2	4	2	2	0.05
340	2	2	2	2	0.45
341	2	3	1	1	0.05
342	2	4	2	2	0.2
343	2	2	2	2	0.3
344	2	3	1	1	0.05
345	2	2	2	2	0.45
346	2	4	2	2	0.3
347	2	1	1	1	0.2
348	2	3	1	1	0.05
349	2	2	2	2	0.2
350	2	3	1	1	0.1
351	2	3	1	1	0.05
352	2	2	2	2	0.2
353	2	3	1	1	0.3
354	2	4	2	2	0.3
355	2	4	2	2	0.1
356	2	1	1	1	0.05
357	2	4	2	2	0.2
358	2	1	1	1	0.1
359	2	1	1	1	0.3
360	2	2	2	2	0.05
361	2	4	2	2	0.2
362	2	1	1	1	0.3
363	2	3	1	1	0.05
364	2	4	2	2	0.3
365	2	1	1	1	0.2
366	2	3	1	1	0.05
367	2	2	2	2	0.1
368	2	1	1	1	0.3
369	2	1	1	1	0.05
370	2	4	2	2	0.2
371	2	4	2	2	0.2
372	2	1	1	1	0.3
373	2	4	2	2	0.05
374	2	1	1	1	0.2
375	2	1	1	1	0.05
376	2	4	2	2	0.45
377	2	3	1	1	0.45
378	2	4	2	2	0.05
379	2	3	1	1	0.2
380	2	4	2	2	0.05
381	2	3	1	1	0.1
382	2	1	1	1	0.3
383	2	2	2	2	0.45
384	2	3	1	1	0.45
385	2	2	2	2	0.05
386	2	4	2	2	0.1
387	2	3	1	1	0.3
388	2	3	1	1	0.05
389	2	2	2	2	0.45
390	2	1	1	1	0.45
391	2	2	2	2	0.3
392	2	4	2	2	0.3
393	2	3	1	1	0.05
394	2	3	1	1	0.45
395	2	4	2	2	0.05
396	2	2	2	2	0.45
397	2	3	1	1	0.05
398	2	1	1	1	0.45
399	2	2	2	2	0.05
400	2	1	1	1	0.45
