401	2	1	1	1	0.45
402	2	2	2	2	0.05
403	2	1	1	1	0.2
404	2	3	1	1	0.3
405	2	4	2	2	0.05
406	2	3	1	1	0.3
407	2	1	1	1	0.1
408	2	4	2	2	0.05
409	2	4	2	2	0.2
410	2	3	1	1	0.1
411	2	2	2	2	0.3
412	2	1	1	1	0.3
413	2	1	1	1	0.05
414	2	4	2	2	0.3
415	2	2	2	2	0.1
416	2	3	1	1	0.3
417	2	2	2	2	0.05
418	2	1	1	1	0.3
419	2	2	2	2	0.3
420	2	2	2	2	0.2
421	2	3	1	1	0.45
422	2	3	1	1	0.05
423	2	4	2	2	0.3
424	2	1	1	1	0.3
425	2	4	2	2	0.45
426	2	2	2	2	0.05
427	2	1	1	1	0.45
428	2	3	1	1	0.1
429	2	4	2	2	0.2
430	2	3	1	1	0.05
431	2	4	2	2	0.1
432	2	4	2	2	0.3
433	2	3	1	1	0.45
434	2	2	2	2	0.05
435	2	3	1	1	0.2
436	2	2	2	2	0.05
437	2	4	2	2	0.3
438	2	3	1	1	0.05
439	2	4	2	2	0.2
440	2	4	2	2	0.05
441	2	1	1	1	0.3
442	2	3	1	1	0.05
443	2	4	2	2	0.45
444	2	4	2	2	0.05
445	2	1	1	1	0.3
446	2	1	1	1	0.1
447	2	2	2	2	0.05
448	2	4	2	2	0.3
449	2	3	1	1	0.2
450	2	2	2	2	0.05
451	2	2	2	2	0.2
452	2	1	1	1	0.05
453	2	4	2	2	0.45
454	2	2	2	2	0.05
455	2	3	1	1	0.2
456	2	3	1	1	0.45
457	2	2	2	2	0.3
458	2	4	2	2	0.2
459	2	1	1	1	0.45
460	2	1	1	1	0.05
461	2	4	2	2	0.45
462	2	4	2	2	0.05
463	2	1	1	1	0.45
464	2	3	1	1	0.05
465	2	2	2	2	0.3
466	2	4	2	2	0.45
467	2	1	1	1	0.3
468	2	1	1	1	0.45
469	2	4	2	2	0.05
470	2	4	2	2	0.2
471	2	3	1	1	0.45
472	2	2	2	2	0.2
473	2	4	2	2	0.05
474	2	3	1	1	0.2
475	2	2	2	2	0.2
476	2	1	1	1	0.05
477	2	3	1	1	0.2
478	2	2	2	2	0.45
479	2	4	2	2	0.1
480	2	1	1	1	0.05
481	2	1	1	1	0.1
482	2	2	2	2	0.3
483	2	1	1	1	0.2
484	2	1	1	1	0.3
485	2	2	2	2	0.1
486	2	3	1	1	0.05
487	2	3	1	1	0.2
488	2	2	2	2	0.1
489	2	3	1	1	0.2
490	2	1	1	1	0.2
491	2	2	2	2	0.45
492	2	1	1	1	0.05
493	2	1	1	1	0.45
494	2	2	2	2	0.45
495	2	3	1	1	0.05
496	2	2	2	2	0.45
497	2	4	2	2	0.45
498	2	3	1	1	0.05
499	2	2	2	2	0.2
500	2	3	1	1	0.05
