1	1	4	1	2	0.1
2	1	2	1	2	0.05
3	1	1	2	1	0.2
4	1	2	2	2	0.45
5	1	2	1	2	0.3
6	1	3	1	1	0.05
7	1	1	2	1	0.45
8	1	4	1	2	0.05
9	1	3	1	1	0.3
10	1	1	2	1	0.3
11	1	4	1	2	0.45
12	1	3	1	1	0.05
13	1	2	2	2	0.3
14	1	2	2	2	0.05
15	1	3	1	1	0.2
16	1	1	1	1	0.2
17	1	2	2	2	0.1
18	1	3	1	1	0.05
19	1	1	2	1	0.2
20	1	4	2	2	0.45
21	1	2	1	2	0.2
22	1	1	2	1	0.05
23	1	1	2	1	0.45
24	1	4	1	2	0.05
25	1	4	1	2	0.2
26	1	3	2	1	0.05
27	1	2	2	2	0.3
28	1	1	1	1	0.45
29	1	1	2	1	0.45
30	1	2	1	2	0.3
31	1	3	2	1	0.2
32	1	3	1	1	0.05
33	1	2	2	2	0.2
34	1	1	1	1	0.05
35	1	1	1	1	0.1
36	1	4	2	2	0.05
37	1	3	1	1	0.3
38	1	3	1	1	0.3
39	1	2	2	2	0.05
40	1	1	2	1	0.2
41	1	2	1	2	0.05
42	1	4	1	2	0.2
43	1	1	2	1	0.3
44	1	2	1	2	0.1
45	1	1	2	1	0.05
46	1	1	1	1	0.45
47	1	4	2	2	0.2
48	1	4	1	2	0.3
49	1	3	2	1	0.05
50	1	3	1	1	0.45
51	1	4	2	2	0.1
52	1	2	1	2	0.05
53	1	1	1	1	0.1
54	1	1	2	1	0.2
55	1	4	2	2	0.3
56	1	3	1	1	0.05
57	1	2	1	2	0.45
58	1	2	2	2	0.3
59	1	3	1	1	0.2
60	1	1	1	1	0.45
61	1	2	2	2	0.05
62	1	1	2	1	0.45
63	1	2	1	2	0.2
64	1	3	1	1	0.3
65	1	1	2	1	0.1
66	1	2	2	2	0.3
67	1	4	1	2	0.05
68	1	3	2	1	0.3
69	1	4	2	2	0.2
70	1	2	1	2	0.45
71	1	1	1	1	0.45
72	1	3	2	1	0.05
73	1	4	2	2	0.1
74	1	4	1	2	0.45
75	1	1	2	1	0.2
76	1	2	2	2	0.3
77	1	2	1	2	0.05
78	1	3	1	1	0.3
79	1	3	2	1	0.45
80	1	4	2	2	0.45
81	1	2	1	2	0.05
82	1	3	2	1	0.1
83	1	3	2	1	0.45
84	1	4	1	2	0.05
85	1	3	2	1	0.2
86	1	4	1	2	0.3
87	1	4	1	2	0.05
88	1	3	2	1	0.2
89	1	2	1	2	0.05
90	1	1	1	1	0.2
91	1	4	2	2	0.1
92	1	1	2	1	0.45
93	1	3	1	1	0.05
94	1	4	2	2	0.3
95	1	3	1	1	0.2
96	1	2	2	2	0.05
97	1	4	2	2	0.45
98	1	1	1	1	0.05
99	1	4	2	2	0.3
100	1	4	2	2	0.05
101	1	3	1	1	0.1
102	1	4	1	2	0.2
103	1	2	2	2	0.2
104	1	3	2	1	0.1
105	1	4	1	2	0.05
106	1	1	2	1	0.2
107	1	1	2	1	0.2
108	1	4	1	2	0.05
109	1	4	2	2	0.45
110	1	1	2	1	0.45
111	1	4	1	2	0.05
112	1	2	1	2	0.2
113	1	1	2	1	0.45
114	1	2	2	2	0.3
115	1	3	1	1	0.2
116	1	3	2	1	0.05
117	1	2	2	2	0.1
118	1	4	1	2	0.45
119	1	3	1	1	0.45
120	1	1	2	1	0.2
121	1	2	2	2	0.05
122	1	3	1	1	0.2
123	1	4	1	2	0.05
124	1	1	2	1	0.3
125	1	3	1	1	0.3
126	1	2	2	2	0.1
127	1	4	1	2	0.05
128	1	3	1	1	0.3
129	1	4	2	2	0.05
130	1	4	2	2	0.3
131	1	1	1	1	0.45
132	1	4	2	2	0.45
133	1	3	1	1	0.05
134	1	2	2	2	0.3
135	1	3	2	1	0.45
136	1	3	1	1	0.05
137	1	4	2	2	0.3
138	1	3	1	1	0.3
139	1	2	1	2	0.05
140	1	4	2	2	0.3
141	1	1	1	1	0.1
142	1	4	2	2	0.05
143	1	1	1	1	0.2
144	1	2	1	2	0.45
145	1	2	2	2	0.05
146	1	3	2	1	0.45
147	1	2	1	2	0.1
148	1	2	1	2	0.2
149	1	1	2	1	0.1
150	1	1	2	1	0.05
151	1	4	1	2	0.45
152	1	3	2	1	0.45
153	1	1	1	1	0.05
154	1	2	1	2	0.3
155	1	3	2	1	0.2
156	1	1	1	1	0.05
157	1	2	1	2	0.3
158	1	1	2	1	0.3
159	1	2	1	2	0.1
160	1	2	2	2	0.45
161	1	3	2	1	0.05
162	1	2	1	2	0.2
163	1	1	1	1	0.3
164	1	3	2	1	0.3
165	1	2	1	2	0.05
166	1	1	2	1	0.2
167	1	4	2	2	0.2
168	1	1	1	1	0.45
169	1	3	2	1	0.05
170	1	4	2	2	0.2
171	1	4	1	2	0.45
172	1	3	1	1	0.45
173	1	3	2	1	0.2
174	1	4	1	2	0.05
175	1	1	2	1	0.2
176	1	1	1	1	0.05
177	1	4	2	2	0.3
178	1	4	2	2	0.1
179	1	3	1	1	0.05
180	1	1	1	1	0.2
181	1	2	2	2	0.3
182	1	1	2	1	0.2
183	1	3	1	1	0.05
184	1	4	2	2	0.1
185	1	3	1	1	0.05
186	1	1	1	1	0.45
187	1	4	2	2	0.05
188	1	1	2	1	0.45
189	1	4	1	2	0.05
190	1	1	1	1	0.2
191	1	2	2	2	0.3
192	1	4	1	2	0.3
193	1	1	2	1	0.45
194	1	2	1	2	0.05
195	1	3	1	1	0.3
196	1	2	2	2	0.05
197	1	2	1	2	0.3
198	1	3	2	1	0.05
199	1	2	2	2	0.45
200	1	2	1	2	0.05
